model/alu_tb.vcd
$date
  Mon Oct  5 16:11:15 2020
$end
$version
  GHDL v0
$end
$timescale
  1 fs
$end
$scope module standard $end
$upscope $end
$scope module std_logic_1164 $end
$upscope $end
$scope module numeric_std $end
$upscope $end
$scope module alu_tb $end
$var reg 1 ! ts0 $end
$var reg 1 " ts1 $end
$var reg 1 # ts2 $end
$var reg 1 $ ti0 $end
$var reg 1 % ti1 $end
$var reg 1 & tj0 $end
$var reg 1 ' tj1 $end
$var reg 1 ( tk0 $end
$var reg 1 ) tk1 $end
$var reg 1 * tcout $end
$scope module uut $end
$var reg 1 + s0 $end
$var reg 1 , s1 $end
$var reg 1 - s2 $end
$var reg 1 . i0 $end
$var reg 1 / i1 $end
$var reg 1 0 j0 $end
$var reg 1 1 j1 $end
$var reg 1 2 k0 $end
$var reg 1 3 k1 $end
$var reg 1 4 c_out $end
$var reg 1 5 k0_and $end
$var reg 1 6 k1_and $end
$var reg 1 7 c_out_and $end
$var reg 1 8 k0_or $end
$var reg 1 9 k1_or $end
$var reg 1 : c_out_or $end
$var reg 1 ; k0_add $end
$var reg 1 < k1_add $end
$var reg 1 = c_out_add $end
$var reg 1 > k0_sub_1 $end
$var reg 1 ? k1_sub_1 $end
$var reg 1 @ c_out_sub_1 $end
$scope module and_op $end
$var reg 1 A i0 $end
$var reg 1 B j0 $end
$var reg 1 C i1 $end
$var reg 1 D j1 $end
$var reg 1 E k0 $end
$var reg 1 F k1 $end
$var reg 1 G c_out $end
$upscope $end
$scope module or_op $end
$var reg 1 H i0 $end
$var reg 1 I j0 $end
$var reg 1 J i1 $end
$var reg 1 K j1 $end
$var reg 1 L k0 $end
$var reg 1 M k1 $end
$var reg 1 N c_out $end
$upscope $end
$scope module add $end
$var reg 1 O i0 $end
$var reg 1 P j0 $end
$var reg 1 Q i1 $end
$var reg 1 R j1 $end
$var reg 1 S k0 $end
$var reg 1 T k1 $end
$var reg 1 U c_out $end
$var reg 1 V carry $end
$upscope $end
$scope module sub_1 $end
$var reg 1 W i0 $end
$var reg 1 X j0 $end
$var reg 1 Y i1 $end
$var reg 1 Z j1 $end
$var reg 1 [ k0 $end
$var reg 1 \ k1 $end
$var reg 1 ] c_out $end
$var reg 1 ^ j0_c $end
$var reg 1 _ j1_c $end
$var reg 1 ` carry $end
$upscope $end
$scope module mux_k0 $end
$var reg 1 a s0 $end
$var reg 1 b s1 $end
$var reg 1 c s2 $end
$var reg 1 d in0 $end
$var reg 1 e in1 $end
$var reg 1 f in2 $end
$var reg 1 g in3 $end
$var reg 1 h in4 $end
$var reg 1 i in5 $end
$var reg 1 j in6 $end
$var reg 1 k in7 $end
$var reg 1 l z $end
$var reg 1 m a0 $end
$var reg 1 n a1 $end
$var reg 1 o a2 $end
$var reg 1 p a3 $end
$var reg 1 q a4 $end
$var reg 1 r a5 $end
$var reg 1 s a6 $end
$var reg 1 t a7 $end
$upscope $end
$scope module mux_k1 $end
$var reg 1 u s0 $end
$var reg 1 v s1 $end
$var reg 1 w s2 $end
$var reg 1 x in0 $end
$var reg 1 y in1 $end
$var reg 1 z in2 $end
$var reg 1 { in3 $end
$var reg 1 | in4 $end
$var reg 1 } in5 $end
$var reg 1 !" in6 $end
$var reg 1 "" in7 $end
$var reg 1 #" z $end
$var reg 1 $" a0 $end
$var reg 1 %" a1 $end
$var reg 1 &" a2 $end
$var reg 1 '" a3 $end
$var reg 1 (" a4 $end
$var reg 1 )" a5 $end
$var reg 1 *" a6 $end
$var reg 1 +" a7 $end
$upscope $end
$scope module mux_c_out $end
$var reg 1 ," s0 $end
$var reg 1 -" s1 $end
$var reg 1 ." s2 $end
$var reg 1 /" in0 $end
$var reg 1 0" in1 $end
$var reg 1 1" in2 $end
$var reg 1 2" in3 $end
$var reg 1 3" in4 $end
$var reg 1 4" in5 $end
$var reg 1 5" in6 $end
$var reg 1 6" in7 $end
$var reg 1 7" z $end
$var reg 1 8" a0 $end
$var reg 1 9" a1 $end
$var reg 1 :" a2 $end
$var reg 1 ;" a3 $end
$var reg 1 <" a4 $end
$var reg 1 =" a5 $end
$var reg 1 >" a6 $end
$var reg 1 ?" a7 $end
$upscope $end
$upscope $end
$upscope $end
$enddefinitions $end
#0
0!
0"
0#
0$
0%
0&
0'
0(
0)
0*
0+
0,
0-
0.
0/
00
01
02
03
04
05
06
07
08
09
0:
0;
0<
0=
1>
1?
0@
0A
0B
0C
0D
0E
0F
0G
0H
0I
0J
0K
0L
0M
0N
0O
0P
0Q
0R
0S
0T
0U
0V
0W
0X
0Y
0Z
1[
1\
0]
1^
1_
0`
0a
0b
0c
0d
0e
0f
0g
0h
1i
0j
0k
0l
0m
0n
0o
0p
0q
0r
0s
0t
0u
0v
0w
0x
0y
0z
0{
0|
1}
0!"
0""
0#"
0$"
0%"
0&"
0'"
0("
0)"
0*"
0+"
0,"
0-"
0."
0/"
00"
01"
02"
03"
04"
05"
06"
07"
08"
09"
0:"
0;"
0<"
0="
0>"
0?"
#10000000
1'
11
19
1<
0?
1D
1K
1M
1R
1T
1Z
0\
0_
1y
1|
0}
#20000000
1&
0'
10
01
18
09
1;
0<
0>
1?
1B
0D
1I
0K
1L
0M
1P
0R
1S
0T
1X
0Z
0[
1\
0^
1_
1e
1h
0i
0y
0|
1}
#30000000
1'
11
19
1<
0?
1D
1K
1M
1R
1T
1Z
0\
0_
1y
1|
0}
#40000000
1%
0&
0'
1/
00
01
08
0;
0>
0?
1@
0B
1C
0D
0I
1J
0K
0L
0P
1Q
0R
0S
0X
1Y
0Z
0[
0\
1]
1^
1_
1`
0e
0h
0i
0}
14"
#50000000
1'
1)
11
13
16
1;
0<
1>
1?
0@
1D
1F
1K
1R
1S
0T
1V
1Z
1[
1\
0]
0_
0`
1h
1i
1x
0|
1}
1#"
1$"
04"
#60000000
1&
0'
0)
10
01
03
06
18
1;
1<
0=
1>
0?
1B
0D
0F
1I
0K
1L
1P
0R
1S
1T
0U
0V
1X
0Z
1[
0\
0^
1_
1`
1e
1h
1i
0x
1|
0}
0#"
0$"
03"
#70000000
1'
1)
11
13
16
0;
0<
1=
0>
1?
1D
1F
1K
1R
0S
0T
1U
1V
1Z
0[
1\
0_
0`
0h
0i
1x
0|
1}
1#"
1$"
13"
#80000000
1$
0%
0&
0'
0)
1.
0/
00
01
03
06
09
1;
0=
0>
1?
1@
1A
0B
0C
0D
0F
1H
0I
0J
0K
0M
1O
0P
0Q
0R
1S
0U
0V
1W
0X
0Y
0Z
0[
1\
1]
1^
1_
1h
0i
0x
0y
1}
0#"
0$"
03"
14"
#90000000
1'
11
19
1<
0?
1D
1K
1M
1R
1T
1Z
0\
0_
1y
1|
0}
#100000000
1&
0'
1(
10
01
12
15
09
0;
0<
1=
1>
1?
0@
1B
0D
1E
1I
0K
0M
1P
0R
0S
0T
1U
1X
0Z
1[
1\
0]
0^
1_
1d
0h
1i
1l
1m
0y
0|
1}
13"
04"
#110000000
1'
11
19
1<
0?
1D
1K
1M
1R
1T
1Z
0\
0_
1y
1|
0}
#120000000
1%
0&
0'
0(
1/
00
01
02
05
1;
0=
1>
0?
1@
0B
1C
0D
0E
0I
1J
0K
0P
1Q
0R
1S
0U
0X
1Y
0Z
1[
0\
1]
1^
1_
1`
0d
1h
1i
0l
0m
0}
03"
14"
#130000000
1'
1)
11
13
16
0;
0<
1=
0>
1?
1D
1F
1K
1R
0S
0T
1U
1V
1Z
0[
1\
0_
0`
0h
0i
1x
0|
1}
1#"
1$"
13"
#140000000
1&
0'
1(
0)
10
01
12
03
15
06
0;
1<
0>
0?
1@
1B
0D
1E
0F
1I
0K
1P
0R
0S
1T
0V
1X
0Z
0[
0\
1]
0^
1_
1`
1d
0h
0i
1l
1m
0x
1|
0}
0#"
0$"
14"
#150000000
1'
1)
11
13
16
1;
0<
1>
1?
0@
1D
1F
1K
1R
1S
0T
1V
1Z
1[
1\
0]
0_
0`
1h
1i
1x
0|
1}
1#"
1$"
04"
#160000000
1#
0$
0%
0&
0'
0(
0)
1-
0.
0/
00
01
02
03
05
06
08
09
0;
0=
1>
1?
0A
0B
0C
0D
0E
0F
0H
0I
0J
0K
0L
0M
0O
0P
0Q
0R
0S
0U
0V
0W
0X
0Y
0Z
1[
1\
1^
1_
1c
0d
0e
0h
1i
0l
0m
0n
1w
0x
0y
1}
0#"
0$"
0%"
1."
03"
#170000000
1'
1)
11
13
19
1<
0?
1D
1K
1M
1R
1T
1Z
0\
0_
1y
1|
0}
1#"
1%"
#180000000
1&
0'
1(
0)
10
01
12
03
18
09
1;
0<
0>
1?
1B
0D
1I
0K
1L
0M
1P
0R
1S
0T
1X
0Z
0[
1\
0^
1_
1e
1h
0i
1l
1n
0y
0|
1}
0#"
0%"
#190000000
1'
1)
11
13
19
1<
0?
1D
1K
1M
1R
1T
1Z
0\
0_
1y
1|
0}
1#"
1%"
#200000000
1%
0&
0'
0(
1/
00
01
02
08
0;
0>
0?
1@
0B
1C
0D
0I
1J
0K
0L
0P
1Q
0R
0S
0X
1Y
0Z
0[
0\
1]
1^
1_
1`
0e
0h
0i
0l
0n
0}
14"
#210000000
1'
11
16
1;
0<
1>
1?
0@
1D
1F
1K
1R
1S
0T
1V
1Z
1[
1\
0]
0_
0`
1h
1i
1x
0|
1}
04"
#220000000
1&
0'
1(
10
01
12
06
18
1;
1<
0=
1>
0?
1B
0D
0F
1I
0K
1L
1P
0R
1S
1T
0U
0V
1X
0Z
1[
0\
0^
1_
1`
1e
1h
1i
1l
1n
0x
1|
0}
03"
#230000000
1'
11
16
0;
0<
1=
0>
1?
1D
1F
1K
1R
0S
0T
1U
1V
1Z
0[
1\
0_
0`
0h
0i
1x
0|
1}
13"
#240000000
1$
0%
0&
0'
0)
1.
0/
00
01
03
06
09
1;
0=
0>
1?
1@
1A
0B
0C
0D
0F
1H
0I
0J
0K
0M
1O
0P
0Q
0R
1S
0U
0V
1W
0X
0Y
0Z
0[
1\
1]
1^
1_
1h
0i
0x
0y
1}
0#"
0%"
03"
14"
#250000000
1'
1)
11
13
19
1<
0?
1D
1K
1M
1R
1T
1Z
0\
0_
1y
1|
0}
1#"
1%"
#260000000
1&
0'
0)
10
01
03
15
09
0;
0<
1=
1>
1?
0@
1B
0D
1E
1I
0K
0M
1P
0R
0S
0T
1U
1X
0Z
1[
1\
0]
0^
1_
1d
0h
1i
0y
0|
1}
0#"
0%"
13"
04"
#270000000
1'
1)
11
13
19
1<
0?
1D
1K
1M
1R
1T
1Z
0\
0_
1y
1|
0}
1#"
1%"
#280000000
1%
0&
0'
1/
00
01
05
1;
0=
1>
0?
1@
0B
1C
0D
0E
0I
1J
0K
0P
1Q
0R
1S
0U
0X
1Y
0Z
1[
0\
1]
1^
1_
1`
0d
1h
1i
0}
03"
14"
#290000000
1'
11
16
0;
0<
1=
0>
1?
1D
1F
1K
1R
0S
0T
1U
1V
1Z
0[
1\
0_
0`
0h
0i
1x
0|
1}
13"
#300000000
1&
0'
10
01
15
06
0;
1<
0>
0?
1@
1B
0D
1E
0F
1I
0K
1P
0R
0S
1T
0V
1X
0Z
0[
0\
1]
0^
1_
1`
1d
0h
0i
0x
1|
0}
14"
#310000000
1'
11
16
1;
0<
1>
1?
0@
1D
1F
1K
1R
1S
0T
1V
1Z
1[
1\
0]
0_
0`
1h
1i
1x
0|
1}
04"
#320000000
1"
0#
0$
0%
0&
0'
0(
0)
1,
0-
0.
0/
00
01
02
03
05
06
08
09
0;
0=
1>
1?
0A
0B
0C
0D
0E
0F
0H
0I
0J
0K
0L
0M
0O
0P
0Q
0R
0S
0U
0V
0W
0X
0Y
0Z
1[
1\
1^
1_
1b
0c
0d
0e
0h
1i
0l
0n
1v
0w
0x
0y
1}
0#"
0%"
1-"
0."
03"
#330000000
1'
11
19
1<
0?
1D
1K
1M
1R
1T
1Z
0\
0_
1y
1|
0}
#340000000
1&
0'
10
01
18
09
1;
0<
0>
1?
1B
0D
1I
0K
1L
0M
1P
0R
1S
0T
1X
0Z
0[
1\
0^
1_
1e
1h
0i
0y
0|
1}
#350000000
1'
11
19
1<
0?
1D
1K
1M
1R
1T
1Z
0\
0_
1y
1|
0}
#360000000
1%
0&
0'
1/
00
01
08
0;
0>
0?
1@
0B
1C
0D
0I
1J
0K
0L
0P
1Q
0R
0S
0X
1Y
0Z
0[
0\
1]
1^
1_
1`
0e
0h
0i
0}
14"
#370000000
1'
11
16
1;
0<
1>
1?
0@
1D
1F
1K
1R
1S
0T
1V
1Z
1[
1\
0]
0_
0`
1h
1i
1x
0|
1}
04"
#380000000
1&
0'
10
01
06
18
1;
1<
0=
1>
0?
1B
0D
0F
1I
0K
1L
1P
0R
1S
1T
0U
0V
1X
0Z
1[
0\
0^
1_
1`
1e
1h
1i
0x
1|
0}
03"
#390000000
1'
11
16
0;
0<
1=
0>
1?
1D
1F
1K
1R
0S
0T
1U
1V
1Z
0[
1\
0_
0`
0h
0i
1x
0|
1}
13"
#400000000
1$
0%
0&
0'
1.
0/
00
01
06
09
1;
0=
0>
1?
1@
1A
0B
0C
0D
0F
1H
0I
0J
0K
0M
1O
0P
0Q
0R
1S
0U
0V
1W
0X
0Y
0Z
0[
1\
1]
1^
1_
1h
0i
0x
0y
1}
03"
14"
#410000000
1'
11
19
1<
0?
1D
1K
1M
1R
1T
1Z
0\
0_
1y
1|
0}
#420000000
1&
0'
10
01
15
09
0;
0<
1=
1>
1?
0@
1B
0D
1E
1I
0K
0M
1P
0R
0S
0T
1U
1X
0Z
1[
1\
0]
0^
1_
1d
0h
1i
0y
0|
1}
13"
04"
#430000000
1'
11
19
1<
0?
1D
1K
1M
1R
1T
1Z
0\
0_
1y
1|
0}
#440000000
1%
0&
0'
1/
00
01
05
1;
0=
1>
0?
1@
0B
1C
0D
0E
0I
1J
0K
0P
1Q
0R
1S
0U
0X
1Y
0Z
1[
0\
1]
1^
1_
1`
0d
1h
1i
0}
03"
14"
#450000000
1'
11
16
0;
0<
1=
0>
1?
1D
1F
1K
1R
0S
0T
1U
1V
1Z
0[
1\
0_
0`
0h
0i
1x
0|
1}
13"
#460000000
1&
0'
10
01
15
06
0;
1<
0>
0?
1@
1B
0D
1E
0F
1I
0K
1P
0R
0S
1T
0V
1X
0Z
0[
0\
1]
0^
1_
1`
1d
0h
0i
0x
1|
0}
14"
#470000000
1'
11
16
1;
0<
1>
1?
0@
1D
1F
1K
1R
1S
0T
1V
1Z
1[
1\
0]
0_
0`
1h
1i
1x
0|
1}
04"
#480000000
1#
0$
0%
0&
0'
1-
0.
0/
00
01
05
06
08
09
0;
0=
1>
1?
0A
0B
0C
0D
0E
0F
0H
0I
0J
0K
0L
0M
0O
0P
0Q
0R
0S
0U
0V
0W
0X
0Y
0Z
1[
1\
1^
1_
1c
0d
0e
0h
1i
1w
0x
0y
1}
1."
03"
#490000000
1'
11
19
1<
0?
1D
1K
1M
1R
1T
1Z
0\
0_
1y
1|
0}
#500000000
1&
0'
10
01
18
09
1;
0<
0>
1?
1B
0D
1I
0K
1L
0M
1P
0R
1S
0T
1X
0Z
0[
1\
0^
1_
1e
1h
0i
0y
0|
1}
#510000000
1'
11
19
1<
0?
1D
1K
1M
1R
1T
1Z
0\
0_
1y
1|
0}
#520000000
1%
0&
0'
1/
00
01
08
0;
0>
0?
1@
0B
1C
0D
0I
1J
0K
0L
0P
1Q
0R
0S
0X
1Y
0Z
0[
0\
1]
1^
1_
1`
0e
0h
0i
0}
14"
#530000000
1'
11
16
1;
0<
1>
1?
0@
1D
1F
1K
1R
1S
0T
1V
1Z
1[
1\
0]
0_
0`
1h
1i
1x
0|
1}
04"
#540000000
1&
0'
10
01
06
18
1;
1<
0=
1>
0?
1B
0D
0F
1I
0K
1L
1P
0R
1S
1T
0U
0V
1X
0Z
1[
0\
0^
1_
1`
1e
1h
1i
0x
1|
0}
03"
#550000000
1'
11
16
0;
0<
1=
0>
1?
1D
1F
1K
1R
0S
0T
1U
1V
1Z
0[
1\
0_
0`
0h
0i
1x
0|
1}
13"
#560000000
1$
0%
0&
0'
1.
0/
00
01
06
09
1;
0=
0>
1?
1@
1A
0B
0C
0D
0F
1H
0I
0J
0K
0M
1O
0P
0Q
0R
1S
0U
0V
1W
0X
0Y
0Z
0[
1\
1]
1^
1_
1h
0i
0x
0y
1}
03"
14"
#570000000
1'
11
19
1<
0?
1D
1K
1M
1R
1T
1Z
0\
0_
1y
1|
0}
#580000000
1&
0'
10
01
15
09
0;
0<
1=
1>
1?
0@
1B
0D
1E
1I
0K
0M
1P
0R
0S
0T
1U
1X
0Z
1[
1\
0]
0^
1_
1d
0h
1i
0y
0|
1}
13"
04"
#590000000
1'
11
19
1<
0?
1D
1K
1M
1R
1T
1Z
0\
0_
1y
1|
0}
#600000000
1%
0&
0'
1/
00
01
05
1;
0=
1>
0?
1@
0B
1C
0D
0E
0I
1J
0K
0P
1Q
0R
1S
0U
0X
1Y
0Z
1[
0\
1]
1^
1_
1`
0d
1h
1i
0}
03"
14"
#610000000
1'
11
16
0;
0<
1=
0>
1?
1D
1F
1K
1R
0S
0T
1U
1V
1Z
0[
1\
0_
0`
0h
0i
1x
0|
1}
13"
#620000000
1&
0'
10
01
15
06
0;
1<
0>
0?
1@
1B
0D
1E
0F
1I
0K
1P
0R
0S
1T
0V
1X
0Z
0[
0\
1]
0^
1_
1`
1d
0h
0i
0x
1|
0}
14"
#630000000
1'
11
16
1;
0<
1>
1?
0@
1D
1F
1K
1R
1S
0T
1V
1Z
1[
1\
0]
0_
0`
1h
1i
1x
0|
1}
04"
#640000000
1!
0"
0#
0$
0%
0&
0'
1(
1*
1+
0,
0-
0.
0/
00
01
12
14
05
06
08
09
0;
0=
1>
1?
0A
0B
0C
0D
0E
0F
0H
0I
0J
0K
0L
0M
0O
0P
0Q
0R
0S
0U
0V
0W
0X
0Y
0Z
1[
1\
1^
1_
1a
0b
0c
0d
0e
0h
1i
1l
0q
1u
0v
0w
0x
0y
1}
1,"
0-"
0."
03"
17"
0<"
#650000000
1'
1)
11
13
19
1<
0?
1D
1K
1M
1R
1T
1Z
0\
0_
1y
1|
0}
1#"
1("
#660000000
1&
0'
1(
0)
10
01
12
03
18
09
1;
0<
0>
1?
1B
0D
1I
0K
1L
0M
1P
0R
1S
0T
1X
0Z
0[
1\
0^
1_
1e
1h
0i
1l
1q
0y
0|
1}
0#"
0("
#670000000
1'
1)
11
13
19
1<
0?
1D
1K
1M
1R
1T
1Z
0\
0_
1y
1|
0}
1#"
1("
#680000000
1%
0&
0'
0(
0*
1/
00
01
02
04
08
0;
0>
0?
1@
0B
1C
0D
0I
1J
0K
0L
0P
1Q
0R
0S
0X
1Y
0Z
0[
0\
1]
1^
1_
1`
0e
0h
0i
0l
0q
0}
14"
07"
#690000000
1'
1(
0)
11
12
03
16
1;
0<
1>
1?
0@
1D
1F
1K
1R
1S
0T
1V
1Z
1[
1\
0]
0_
0`
1h
1i
1l
1q
1x
0|
1}
0#"
0("
04"
#700000000
1&
0'
1(
1)
1*
10
01
12
13
14
06
18
1;
1<
0=
1>
0?
1B
0D
0F
1I
0K
1L
1P
0R
1S
1T
0U
0V
1X
0Z
1[
0\
0^
1_
1`
1e
1h
1i
1l
1q
0x
1|
0}
1#"
1("
03"
17"
0<"
#710000000
1'
0(
0)
0*
11
02
03
04
16
0;
0<
1=
0>
1?
1D
1F
1K
1R
0S
0T
1U
1V
1Z
0[
1\
0_
0`
0h
0i
0l
0q
1x
0|
1}
0#"
0("
13"
07"
1<"
#720000000
1$
0%
0&
0'
1*
1.
0/
00
01
14
06
09
1;
0=
0>
1?
1@
1A
0B
0C
0D
0F
1H
0I
0J
0K
0M
1O
0P
0Q
0R
1S
0U
0V
1W
0X
0Y
0Z
0[
1\
1]
1^
1_
1h
0i
1q
0x
0y
1}
03"
14"
17"
0<"
#730000000
1'
1)
11
13
19
1<
0?
1D
1K
1M
1R
1T
1Z
0\
0_
1y
1|
0}
1#"
1("
#740000000
1&
0'
0(
0)
1*
10
01
02
03
14
15
09
0;
0<
1=
1>
1?
0@
1B
0D
1E
1I
0K
0M
1P
0R
0S
0T
1U
1X
0Z
1[
1\
0]
0^
1_
1d
0h
1i
0l
0q
0y
0|
1}
0#"
0("
13"
04"
17"
1<"
#750000000
1'
1)
11
13
19
1<
0?
1D
1K
1M
1R
1T
1Z
0\
0_
1y
1|
0}
1#"
1("
#760000000
1%
0&
0'
1(
0*
1/
00
01
12
04
05
1;
0=
1>
0?
1@
0B
1C
0D
0E
0I
1J
0K
0P
1Q
0R
1S
0U
0X
1Y
0Z
1[
0\
1]
1^
1_
1`
0d
1h
1i
1l
1q
0}
03"
14"
07"
0<"
#770000000
1'
0(
0)
11
02
03
16
0;
0<
1=
0>
1?
1D
1F
1K
1R
0S
0T
1U
1V
1Z
0[
1\
0_
0`
0h
0i
0l
0q
1x
0|
1}
0#"
0("
13"
1<"
#780000000
1&
0'
0(
1)
1*
10
01
02
13
14
15
06
0;
1<
0>
0?
1@
1B
0D
1E
0F
1I
0K
1P
0R
0S
1T
0V
1X
0Z
0[
0\
1]
0^
1_
1`
1d
0h
0i
0l
0q
0x
1|
0}
1#"
1("
14"
17"
#790000000
1'
1(
0)
11
12
03
16
1;
0<
1>
1?
0@
1D
1F
1K
1R
1S
0T
1V
1Z
1[
1\
0]
0_
0`
1h
1i
1l
1q
1x
0|
1}
0#"
0("
04"
#800000000
1#
0$
0%
0&
0'
0(
0)
0*
1-
0.
0/
00
01
02
03
04
05
06
08
09
0;
0=
1>
1?
0A
0B
0C
0D
0E
0F
0H
0I
0J
0K
0L
0M
0O
0P
0Q
0R
0S
0U
0V
0W
0X
0Y
0Z
1[
1\
1^
1_
1c
0d
0e
0h
1i
0l
0q
1r
1w
0x
0y
1}
0#"
1)"
1."
03"
07"
0<"
#810000000
1'
1)
11
13
19
1<
0?
1D
1K
1M
1R
1T
1Z
0\
0_
1y
1|
0}
1#"
0)"
#820000000
1&
0'
1(
0)
10
01
12
03
18
09
1;
0<
0>
1?
1B
0D
1I
0K
1L
0M
1P
0R
1S
0T
1X
0Z
0[
1\
0^
1_
1e
1h
0i
1l
0r
0y
0|
1}
0#"
1)"
#830000000
1'
1)
11
13
19
1<
0?
1D
1K
1M
1R
1T
1Z
0\
0_
1y
1|
0}
1#"
0)"
#840000000
1%
0&
0'
1(
1)
1/
00
01
12
13
08
0;
0>
0?
1@
0B
1C
0D
0I
1J
0K
0L
0P
1Q
0R
0S
0X
1Y
0Z
0[
0\
1]
1^
1_
1`
0e
0h
0i
1l
0r
0}
1#"
0)"
14"
1="
#850000000
1'
0(
0)
1*
11
02
03
14
16
1;
0<
1>
1?
0@
1D
1F
1K
1R
1S
0T
1V
1Z
1[
1\
0]
0_
0`
1h
1i
0l
1r
1x
0|
1}
0#"
1)"
04"
17"
0="
#860000000
1&
0'
0(
1)
0*
10
01
02
13
04
06
18
1;
1<
0=
1>
0?
1B
0D
0F
1I
0K
1L
1P
0R
1S
1T
0U
0V
1X
0Z
1[
0\
0^
1_
1`
1e
1h
1i
0l
1r
0x
1|
0}
1#"
0)"
03"
07"
#870000000
1'
1(
0)
11
12
03
16
0;
0<
1=
0>
1?
1D
1F
1K
1R
0S
0T
1U
1V
1Z
0[
1\
0_
0`
0h
0i
1l
0r
1x
0|
1}
0#"
1)"
13"
#880000000
1$
0%
0&
0'
1(
0)
1.
0/
00
01
12
03
06
09
1;
0=
0>
1?
1@
1A
0B
0C
0D
0F
1H
0I
0J
0K
0M
1O
0P
0Q
0R
1S
0U
0V
1W
0X
0Y
0Z
0[
1\
1]
1^
1_
1h
0i
1l
0r
0x
0y
1}
0#"
1)"
03"
14"
1="
#890000000
1'
1)
11
13
19
1<
0?
1D
1K
1M
1R
1T
1Z
0\
0_
1y
1|
0}
1#"
0)"
#900000000
1&
0'
0(
0)
1*
10
01
02
03
14
15
09
0;
0<
1=
1>
1?
0@
1B
0D
1E
1I
0K
0M
1P
0R
0S
0T
1U
1X
0Z
1[
1\
0]
0^
1_
1d
0h
1i
0l
1r
0y
0|
1}
0#"
1)"
13"
04"
17"
0="
#910000000
1'
1)
11
13
19
1<
0?
1D
1K
1M
1R
1T
1Z
0\
0_
1y
1|
0}
1#"
0)"
#920000000
1%
0&
0'
0(
1)
0*
1/
00
01
02
13
04
05
1;
0=
1>
0?
1@
0B
1C
0D
0E
0I
1J
0K
0P
1Q
0R
1S
0U
0X
1Y
0Z
1[
0\
1]
1^
1_
1`
0d
1h
1i
0l
1r
0}
1#"
0)"
03"
14"
07"
1="
#930000000
1'
1(
0)
1*
11
12
03
14
16
0;
0<
1=
0>
1?
1D
1F
1K
1R
0S
0T
1U
1V
1Z
0[
1\
0_
0`
0h
0i
1l
0r
1x
0|
1}
0#"
1)"
13"
17"
#940000000
1&
0'
1(
1)
0*
10
01
12
13
04
15
06
0;
1<
0>
0?
1@
1B
0D
1E
0F
1I
0K
1P
0R
0S
1T
0V
1X
0Z
0[
0\
1]
0^
1_
1`
1d
0h
0i
1l
0r
0x
1|
0}
1#"
0)"
14"
07"
1="
#950000000
1'
0(
0)
1*
11
02
03
14
16
1;
0<
1>
1?
0@
1D
1F
1K
1R
1S
0T
1V
1Z
1[
1\
0]
0_
0`
1h
1i
0l
1r
1x
0|
1}
0#"
1)"
04"
17"
0="
#960000000
1"
0#
0$
0%
0&
0'
0(
0)
0*
1,
0-
0.
0/
00
01
02
03
04
05
06
08
09
0;
0=
1>
1?
0A
0B
0C
0D
0E
0F
0H
0I
0J
0K
0L
0M
0O
0P
0Q
0R
0S
0U
0V
0W
0X
0Y
0Z
1[
1\
1^
1_
1b
0c
0d
0e
0h
1i
0l
0r
1v
0w
0x
0y
1}
0#"
0)"
1-"
0."
03"
07"
#970000000
1'
11
19
1<
0?
1D
1K
1M
1R
1T
1Z
0\
0_
1y
1|
0}
#980000000
1&
0'
10
01
18
09
1;
0<
0>
1?
1B
0D
1I
0K
1L
0M
1P
0R
1S
0T
1X
0Z
0[
1\
0^
1_
1e
1h
0i
0y
0|
1}
#990000000
1'
11
19
1<
0?
1D
1K
1M
1R
1T
1Z
0\
0_
1y
1|
0}
#1000000000
1%
0&
0'
1/
00
01
08
0;
0>
0?
1@
0B
1C
0D
0I
1J
0K
0L
0P
1Q
0R
0S
0X
1Y
0Z
0[
0\
1]
1^
1_
1`
0e
0h
0i
0}
14"
#1010000000
1'
11
16
1;
0<
1>
1?
0@
1D
1F
1K
1R
1S
0T
1V
1Z
1[
1\
0]
0_
0`
1h
1i
1x
0|
1}
04"
#1020000000
1&
0'
10
01
06
18
1;
1<
0=
1>
0?
1B
0D
0F
1I
0K
1L
1P
0R
1S
1T
0U
0V
1X
0Z
1[
0\
0^
1_
1`
1e
1h
1i
0x
1|
0}
03"
#1030000000
1'
11
16
0;
0<
1=
0>
1?
1D
1F
1K
1R
0S
0T
1U
1V
1Z
0[
1\
0_
0`
0h
0i
1x
0|
1}
13"
#1040000000
1$
0%
0&
0'
1.
0/
00
01
06
09
1;
0=
0>
1?
1@
1A
0B
0C
0D
0F
1H
0I
0J
0K
0M
1O
0P
0Q
0R
1S
0U
0V
1W
0X
0Y
0Z
0[
1\
1]
1^
1_
1h
0i
0x
0y
1}
03"
14"
#1050000000
1'
11
19
1<
0?
1D
1K
1M
1R
1T
1Z
0\
0_
1y
1|
0}
#1060000000
1&
0'
10
01
15
09
0;
0<
1=
1>
1?
0@
1B
0D
1E
1I
0K
0M
1P
0R
0S
0T
1U
1X
0Z
1[
1\
0]
0^
1_
1d
0h
1i
0y
0|
1}
13"
04"
#1070000000
1'
11
19
1<
0?
1D
1K
1M
1R
1T
1Z
0\
0_
1y
1|
0}
#1080000000
1%
0&
0'
1/
00
01
05
1;
0=
1>
0?
1@
0B
1C
0D
0E
0I
1J
0K
0P
1Q
0R
1S
0U
0X
1Y
0Z
1[
0\
1]
1^
1_
1`
0d
1h
1i
0}
03"
14"
#1090000000
1'
11
16
0;
0<
1=
0>
1?
1D
1F
1K
1R
0S
0T
1U
1V
1Z
0[
1\
0_
0`
0h
0i
1x
0|
1}
13"
#1100000000
1&
0'
10
01
15
06
0;
1<
0>
0?
1@
1B
0D
1E
0F
1I
0K
1P
0R
0S
1T
0V
1X
0Z
0[
0\
1]
0^
1_
1`
1d
0h
0i
0x
1|
0}
14"
#1110000000
1'
11
16
1;
0<
1>
1?
0@
1D
1F
1K
1R
1S
0T
1V
1Z
1[
1\
0]
0_
0`
1h
1i
1x
0|
1}
04"
#1120000000
1#
0$
0%
0&
0'
1-
0.
0/
00
01
05
06
08
09
0;
0=
1>
1?
0A
0B
0C
0D
0E
0F
0H
0I
0J
0K
0L
0M
0O
0P
0Q
0R
0S
0U
0V
0W
0X
0Y
0Z
1[
1\
1^
1_
1c
0d
0e
0h
1i
1w
0x
0y
1}
1."
03"
#1130000000
1'
11
19
1<
0?
1D
1K
1M
1R
1T
1Z
0\
0_
1y
1|
0}
#1140000000
1&
0'
10
01
18
09
1;
0<
0>
1?
1B
0D
1I
0K
1L
0M
1P
0R
1S
0T
1X
0Z
0[
1\
0^
1_
1e
1h
0i
0y
0|
1}
#1150000000
1'
11
19
1<
0?
1D
1K
1M
1R
1T
1Z
0\
0_
1y
1|
0}
#1160000000
1%
0&
0'
1/
00
01
08
0;
0>
0?
1@
0B
1C
0D
0I
1J
0K
0L
0P
1Q
0R
0S
0X
1Y
0Z
0[
0\
1]
1^
1_
1`
0e
0h
0i
0}
14"
#1170000000
1'
11
16
1;
0<
1>
1?
0@
1D
1F
1K
1R
1S
0T
1V
1Z
1[
1\
0]
0_
0`
1h
1i
1x
0|
1}
04"
